[
	{
		"id": "5BCF2B40-8F9D-4353-85C6-8859D6AA033B",
		"category": "Food",
		"date": "2017-07-10",
		"value": 11.25,
		"description": "Lunch shopping",
		"paid": true
	},
	{
		"id": "E7808164-F9B5-4D4D-9E4E-AA404C99C1BE",
		"category": "Food",
		"date": "2017-07-11",
		"value": 25.5,
		"description": "Restaurant",
		"paid": true
	},
	{
		"id": "212B0A26-0BFA-41D4-A2D2-BF4EEE5256EB",
		"category": "Home",
		"date": "2017-07-11",
		"value": 113.3,
		"description": "Table to living room",
		"paid": true
	},
	{
		"id": "212B0A26-0BFA-41D4-A2D2-BF4EEE5256AA",
		"category": "Leisure",
		"date": "2017-07-13",
		"value": 10,
		"description": "Cinema",
		"paid": false
	}
]
